a_verified_type,t_event_noyear,count,mean,std,min,25%,50%,75%,max,iqr
Blue check,ISAD,2497.0,-0.33,0.34,-0.9,-0.65,-0.31,-0.03,0.91,0.62
Blue check,WPILRD,1647.0,-0.33,0.32,-0.91,-0.62,-0.28,-0.04,0.95,0.58
Normal,ISAD,34167.0,-0.29,0.35,-0.92,-0.6,-0.24,-0.02,0.97,0.58
Normal,WPILRD,21530.0,-0.32,0.33,-0.92,-0.63,-0.28,-0.04,0.97,0.59
