index,t_topic,avg_subjectivity,avg_scaled_polarity,original_polarity,topic_count,proportion_women,proportion_men,combined_depression_count,combined_depression
0,0,0.4089285714285714,0.2796116,-0.44077682,6138,0.5811339198435973,0.22906484196806778,56,0.009123492994460736
1,1,0.4,0.33609897,-0.32780206,5124,0.4178376268540203,0.26736924277907886,16,0.00312256049960968
2,2,0.4,0.4540304,-0.09193919,4144,0.3902027027027027,0.13079150579150578,7,0.0016891891891891893
3,3,0.0,0.45086986,-0.09826026,1429,0.3561931420573828,0.24142757172848145,1,0.0006997900629811056
4,4,0.35,0.2894011,-0.42119777,1984,0.4410282258064516,0.27318548387096775,9,0.0045362903225806455
5,6,0.3333333333333333,0.38639513,-0.22720975,1397,0.42376521116678595,0.2770221904080172,1,0.0007158196134574087
6,7,0.3681331168831169,0.4820731,-0.035853818,1402,0.369472182596291,0.22325249643366618,0,0.0
7,9,0.3875,0.47536957,-0.049260873,1365,0.40073260073260075,0.1706959706959707,0,0.0
8,10,0.31785714285714284,0.25735652,-0.48528695,1075,0.4604651162790698,0.2744186046511628,1,0.0009302325581395349
9,11,0.25,0.29679623,-0.40640754,829,0.46562123039806996,0.28347406513872137,1,0.0012062726176115801
