t_event_noyear,t_year,count,mean,std,min,25%,50%,75%,max,iqr
ISAD,2021,13317.0,0.36,0.28,0.0,0.0,0.39,0.54,1.0,0.54
ISAD,2022,23347.0,0.36,0.28,0.0,0.05,0.38,0.54,1.0,0.49
WPILRD,2021,8428.0,0.32,0.29,0.0,0.0,0.32,0.54,1.0,0.54
WPILRD,2022,14749.0,0.36,0.29,0.0,0.05,0.39,0.55,1.0,0.5
