a_gender,count,mean,std,min,25%,50%,75%,max,iqr
Man,13331.0,-0.34,0.34,-0.92,-0.64,-0.32,-0.05,0.96,0.59
Unclassified,19789.0,-0.23,0.34,-0.91,-0.51,-0.14,-0.0,0.97,0.51
Woman,26721.0,-0.34,0.35,-0.92,-0.65,-0.32,-0.05,0.97,0.61
