t_event_noyear,t_year,count,mean,std,min,25%,50%,75%,max,iqr
ISAD,2021,14073.0,0.36,0.28,0.0,0.02,0.39,0.54,1.0,0.51
ISAD,2022,24611.0,0.36,0.28,0.0,0.05,0.38,0.54,1.0,0.49
WPILRD,2021,10324.0,0.33,0.29,0.0,0.0,0.33,0.54,1.0,0.54
WPILRD,2022,15936.0,0.37,0.29,0.0,0.05,0.39,0.55,1.0,0.5
