a_gender,count,mean,std,min,25%,50%,75%,max,iqr
Man,14070.0,-0.34,0.34,-0.92,-0.65,-0.33,-0.05,0.96,0.6
Unclassified,21400.0,-0.23,0.34,-0.91,-0.52,-0.14,-0.0,0.97,0.51
Woman,29474.0,-0.34,0.35,-0.92,-0.66,-0.33,-0.04,0.97,0.61
