a_gender,t_event_noyear,count,mean,std,min,25%,50%,75%,max,iqr
Man,ISAD,8192.0,0.37,0.28,0.0,0.03,0.4,0.55,1.0,0.52
Man,WPILRD,5878.0,0.36,0.29,0.0,0.0,0.38,0.55,1.0,0.55
Unclassified,ISAD,13473.0,0.35,0.27,0.0,0.05,0.36,0.53,1.0,0.48
Unclassified,WPILRD,7927.0,0.33,0.29,0.0,0.0,0.33,0.54,1.0,0.54
Woman,ISAD,17019.0,0.37,0.29,0.0,0.03,0.4,0.55,1.0,0.52
Woman,WPILRD,12455.0,0.36,0.29,0.0,0.0,0.4,0.57,1.0,0.57
