index,t_topic,avg_subjectivity,avg_scaled_polarity,original_polarity,topic_count,proportion_women,proportion_men,combined_depression_count,combined_depression
0,0,0.4083333333333334,0.26782554,-0.4643489,6957,0.588328302429208,0.22394710363662498,70,0.010061808250682766
1,1,0.4,0.33515435,-0.32969132,5156,0.419511249030256,0.2670674941815361,16,0.0031031807602792862
2,2,0.4,0.45231313,-0.09537378,4203,0.3899595527004521,0.13085891030216512,9,0.0021413276231263384
3,3,0.06666666666666667,0.44879198,-0.10241605,1449,0.3616287094547964,0.24085576259489302,3,0.002070393374741201
4,4,0.35000000000000003,0.28805307,-0.42389387,2002,0.44155844155844154,0.2727272727272727,9,0.004495504495504496
5,5,0.4,0.41202998,-0.17594,1825,0.4810958904109589,0.13095890410958905,23,0.012602739726027398
6,6,0.3333333333333333,0.38193887,-0.23612222,1405,0.4234875444839858,0.2775800711743772,1,0.0007117437722419929
7,7,0.3678571428571429,0.48120862,-0.03758276,1432,0.375,0.2206703910614525,2,0.0013966480446927375
8,9,0.3888888888888889,0.47536957,-0.049260873,1373,0.40203932993445013,0.1704297159504734,0,0.0
9,10,0.31785714285714284,0.25726175,-0.48547652,1083,0.4626038781163435,0.2742382271468144,1,0.0009233610341643582
