index,t_topic,t_topic_label
12,0,0_body_choice_fucking_prison_oklahoma_vaccine_yall_men_pro_black
9523,1,1_medicare_cut_immediately_teaching_ad_lose_congress_beginning_economy_restrict
3365,2,2_unsafe_medication_international_accessible_safe_essential_barrier_stigma_medicine_maternal
118,5,5_loss_infant_stillbirth_awareness_lost_light_miscarriage_experience_october_regret
5722,20,20_shadow_judiciary_jackson_mississippi_dobbs_term_committee_hearing_case_supreme
4000,21,21_cruz_ted_reveals_yo_lifesaving_miscarriage_emotional_essay_internet_amid
7934,25,25_denied_florida_victim_minor_ohio_cancer_incest_forced_travel_raped
2641,29,29_british_greatest_vaccination_vax_minister_animal_misinformation_fertility_vaccine_science
5619,30,30_film_movie_industry_director_tw_sad_came_abusive_innocent_propaganda
6752,60,60_posted_miscarriage_gross_pill_racist_dick_fr_shocking_reasonable_justice
