t_event_noyear,t_year,count,mean,std,min,25%,50%,75%,max,iqr
ISAD,2021,549.0,-0.33,0.38,-0.9,-0.67,-0.32,-0.03,0.96,0.64
ISAD,2022,935.0,-0.38,0.37,-0.9,-0.67,-0.44,-0.12,0.95,0.55
WPILRD,2021,1638.0,-0.36,0.39,-0.92,-0.7,-0.41,-0.05,0.96,0.65
WPILRD,2022,847.0,-0.29,0.39,-0.9,-0.64,-0.28,-0.02,0.95,0.61
