a_gender,count,mean,std,min,25%,50%,75%,max,iqr
Man,603.0,-0.4,0.37,-0.91,-0.71,-0.48,-0.11,0.93,0.6
Unclassified,1193.0,-0.28,0.36,-0.9,-0.6,-0.27,-0.02,0.95,0.58
Woman,2173.0,-0.36,0.4,-0.92,-0.71,-0.42,-0.07,0.96,0.64
